5 Data wrangling 1 | Level 1 Data Skills
…
Type and run the code that loads the packages tidyverse and babynames using library() in the Activity 1 code chunk.

library(tidyverse)
library(babynames)

5.4 Activity 2: Look at the data

The package babynames contains an object of the same name that contains all the data about babynames.

View a preview of this dataset by typing babynames in to the console. You should see the following output:

babynames

## # A tibble: 1,924,665 x 5
##     year sex   name          n   prop
##    <dbl> <chr> <chr>     <int>  <dbl>
##  1  1880 F     Mary       7065 0.0724
##  2  1880 F     Anna       2604 0.0267
##  3  1880 F     Emma       2003 0.0205
##  4  1880 F     Elizabeth  1939 0.0199
##  5  1880 F     Minnie     1746 0.0179
##  6  1880 F     Margaret   1578 0.0162
##  7  1880 F     Ida        1472 0.0151
##  8  1880 F     Alice      1414 0.0145
##  9  1880 F     Bertha     1320 0.0135
## 10  1880 F     Sarah      1288 0.0132
## # ... with 1,924,655 more rows
…
Change the names to your own examples and see how the plot changes. You can also change the sex from “F” to “M”. Post the photos of your new plots on the Teams Data Skills channel.

Because in most countries assigned sex at birth is binary, there is no data on intersex, trans or non-binary names. In lieu of that, here’s the Wikipedia page about gender-neutral names and naming laws around the world which will hopefully make you question why on earth we ascribe someone’s entire gender identity to a bunch of sounds and letters we use to label them.

5.6 Activity 4: Selecting variables of interest

There are two numeric measurements of name popularity, prop (the proportion of all babies with each name) is probably more useful than n (total number of babies with that name), because it takes into account that different numbers of babies are born in different years.

Just like in Loading Data, if we wanted to create a dataset that only includes certain variables, we can use the select() function from the dplyr package. Run the below code to only select the columns year, sex, name and prop.

select(.data = babynames, # the object you want to select variables from
       year, sex, name, prop) # the variables you want to select

## # A tibble: 1,924,665 x 4
##     year sex   name        prop
##    <dbl> <chr> <chr>      <dbl>
##  1  1880 F     Mary      0.0724
##  2  1880 F     Anna      0.0267
##  3  1880 F     Emma      0.0205
##  4  1880 F     Elizabeth 0.0199
##  5  1880 F     Minnie    0.0179
##  6  1880 F     Margaret  0.0162
##  7  1880 F     Ida       0.0151
##  8  1880 F     Alice     0.0145
##  9  1880 F     Bertha    0.0135
## 10  1880 F     Sarah     0.0132
## # ... with 1,924,655 more rows

If you get an error message when using select that says unused argument it means that it is trying to use the wrong version of the select function. There are two solutions to this, first, save you work and then restart the R session (click session -restart R) and then run all your code above again from the start, or replace select with dplyr::select which tells R exactly which version of the select function to use. We’d recommend restarting the session because this will get you in the habit and it’s a useful thing to try for a range of problems

Alternatively, you can also tell R which variables you don’t want, in this case, rather than telling R to select year, sex, name and prop, we can simply tell it to drop the column n using the minus sign - before the variable name.

select(.data = babynames, -n)

## # A tibble: 1,924,665 x 4
##     year sex   name        prop
##    <dbl> <chr> <chr>      <dbl>
##  1  1880 F     Mary      0.0724
##  2  1880 F     Anna      0.0267
##  3  1880 F     Emma      0.0205
##  4  1880 F     Elizabeth 0.0199
##  5  1880 F     Minnie    0.0179
##  6  1880 F     Margaret  0.0162
##  7  1880 F     Ida       0.0151
##  8  1880 F     Alice     0.0145
##  9  1880 F     Bertha    0.0135
## 10  1880 F     Sarah     0.0132
## # ... with 1,924,655 more rows

Note that select() does not change the original tibble, but makes a new tibble with the specified columns. If you don’t save this new tibble to an object, it won’t be saved. If you want to keep this new dataset, create a new object. When you run this code, you will see your new tibble appear in the environment pane.

new_dat <- select(.data = babynames, -n)

5.7 Activity 5: Arranging the data

The function arrange() will sort the rows in the table according to the columns you supply. Try running the following code:

arrange(.data = babynames, # the data you want to sort
        name) # the variable you want to sort by

## # A tibble: 1,924,665 x 5
##     year sex   name      n       prop
##    <dbl> <chr> <chr> <int>      <dbl>
##  1  2007 M     Aaban     5 0.00000226
##  2  2009 M     Aaban     6 0.00000283
##  3  2010 M     Aaban     9 0.00000439
##  4  2011 M     Aaban    11 0.00000542
##  5  2012 M     Aaban    11 0.00000543
##  6  2013 M     Aaban    14 0.00000694
##  7  2014 M     Aaban    16 0.00000783
##  8  2015 M     Aaban    15 0.00000736
##  9  2016 M     Aaban     9 0.00000446
## 10  2017 M     Aaban    11 0.0000056 
## # ... with 1,924,655 more rows

The data are now sorted in ascending alphabetical order by name. The default is to sort in ascending order. If you want it descending, wrap the name of the variable in the desc() function. For instance, to sort by year in descending order, run the following code:

arrange(babynames,desc(year)) 

## # A tibble: 1,924,665 x 5
##     year sex   name          n    prop
##    <dbl> <chr> <chr>     <int>   <dbl>
##  1  2017 F     Emma      19738 0.0105 
##  2  2017 F     Olivia    18632 0.00994
##  3  2017 F     Ava       15902 0.00848
##  4  2017 F     Isabella  15100 0.00805
##  5  2017 F     Sophia    14831 0.00791
##  6  2017 F     Mia       13437 0.00717
##  7  2017 F     Charlotte 12893 0.00688
##  8  2017 F     Amelia    11800 0.00629
##  9  2017 F     Evelyn    10675 0.00569
## 10  2017 F     Abigail   10551 0.00563
## # ... with 1,924,655 more rows
…
A != B
not equal |A
A does not exactly equal B

A %in% B |in
in |A
A is an element of vector B

If you want only those observations for a specific name (e.g., Mary), you use the equivalence operator ==. Note that you use double equal signs, not a single equal sign.

filter(babynames, name == "Mary")

## # A tibble: 268 x 5
##     year sex   name      n     prop
##    <dbl> <chr> <chr> <int>    <dbl>
##  1  1880 F     Mary   7065 0.0724  
##  2  1880 M     Mary     27 0.000228
##  3  1881 F     Mary   6919 0.0700  
##  4  1881 M     Mary     29 0.000268
##  5  1882 F     Mary   8148 0.0704  
##  6  1882 M     Mary     30 0.000246
##  7  1883 F     Mary   8012 0.0667  
##  8  1883 M     Mary     32 0.000284
##  9  1884 F     Mary   9217 0.0670  
## 10  1884 M     Mary     36 0.000293
## # ... with 258 more rows

If you wanted all the names except Mary, you use the ‘not equals’ operator:

filter(babynames, name!="Mary") 

## # A tibble: 1,924,397 x 5
##     year sex   name          n   prop
##    <dbl> <chr> <chr>     <int>  <dbl>
##  1  1880 F     Anna       2604 0.0267
##  2  1880 F     Emma       2003 0.0205
##  3  1880 F     Elizabeth  1939 0.0199
##  4  1880 F     Minnie     1746 0.0179
##  5  1880 F     Margaret   1578 0.0162
##  6  1880 F     Ida        1472 0.0151
##  7  1880 F     Alice      1414 0.0145
##  8  1880 F     Bertha     1320 0.0135
##  9  1880 F     Sarah      1288 0.0132
## 10  1880 F     Annie      1258 0.0129
## # ... with 1,924,387 more rows

And if you wanted names from a defined set - e.g., names of British queens - you can use %in%:

filter(babynames, name %in% c("Mary","Elizabeth","Victoria"))

## # A tibble: 772 x 5
##     year sex   name          n      prop
##    <dbl> <chr> <chr>     <int>     <dbl>
##  1  1880 F     Mary       7065 0.0724   
##  2  1880 F     Elizabeth  1939 0.0199   
##  3  1880 F     Victoria     93 0.000953 
##  4  1880 M     Mary         27 0.000228 
##  5  1880 M     Elizabeth     9 0.0000760
##  6  1881 F     Mary       6919 0.0700   
##  7  1881 F     Elizabeth  1852 0.0187   
##  8  1881 F     Victoria    117 0.00118  
##  9  1881 M     Mary         29 0.000268 
## 10  1882 F     Mary       8148 0.0704   
## # ... with 762 more rows

This gives you data for the names in the vector on the right hand side of %in%. You can always invert an expression to get its opposite. So, for instance, if you instead wanted to get rid of all Marys, Elizabeths, and Victorias you would use the following:

filter(babynames, !(name %in% c("Mary","Elizabeth","Victoria")))

## # A tibble: 1,923,893 x 5
##     year sex   name         n   prop
##    <dbl> <chr> <chr>    <int>  <dbl>
##  1  1880 F     Anna      2604 0.0267
##  2  1880 F     Emma      2003 0.0205
##  3  1880 F     Minnie    1746 0.0179
##  4  1880 F     Margaret  1578 0.0162
##  5  1880 F     Ida       1472 0.0151
##  6  1880 F     Alice     1414 0.0145
##  7  1880 F     Bertha    1320 0.0135
##  8  1880 F     Sarah     1288 0.0132
##  9  1880 F     Annie     1258 0.0129
## 10  1880 F     Clara     1226 0.0126
## # ... with 1,923,883 more rows

You can include as many expressions as you like as additional arguments to filter() and it will only pull out the rows for which all of the expressions for that row evaluate to TRUE. For instance, filter(babynames, year > 2000, prop > .01) will pull out only those observations beyond the year 2000 that represent greater than 1% of the names for a given sex; any observation where either expression is false will be excluded. This ability to string together criteria makes filter() a very powerful member of the Wickham Six.

Remember that this section exists. It will contain a lot of the answers to problems you face when wrangling data!

5.9 Activity 7: Creating new variables

Sometimes we need to create a new variable that doesn’t exist in our dataset. For instance, we might want to figure out what decade a particular year belongs to. To create new variables, we use the function mutate(). Note that if you want to save this new column, you need to save it to an object. Here, you are mutating a new column and attaching it to the new_dat object you created in Activity 4.

new_dat <- mutate(.data = babynames, # the tibble you want to add a column to
                  decade = floor(year/10) *10) # new column name = what you want it to contain
new_dat

## # A tibble: 1,924,665 x 6
##     year sex   name          n   prop decade
##    <dbl> <chr> <chr>     <int>  <dbl>  <dbl>
##  1  1880 F     Mary       7065 0.0724   1880
##  2  1880 F     Anna       2604 0.0267   1880
##  3  1880 F     Emma       2003 0.0205   1880
##  4  1880 F     Elizabeth  1939 0.0199   1880
##  5  1880 F     Minnie     1746 0.0179   1880
##  6  1880 F     Margaret   1578 0.0162   1880
##  7  1880 F     Ida        1472 0.0151   1880
##  8  1880 F     Alice      1414 0.0145   1880
##  9  1880 F     Bertha     1320 0.0135   1880
## 10  1880 F     Sarah      1288 0.0132   1880
## # ... with 1,924,655 more rows
…
You can also add multiple grouping variables. For example, the following code groups new_dat by sex and decade and then calculates the summary statistics to give us the mean and median number of male and female babies in each decade.

group_new_dat <- group_by(new_dat, sex, decade)
summarise(group_new_dat,
          mean_year = mean(n),
          median_year = median(n))

## `summarise()` regrouping output by 'sex' (override with `.groups` argument)

## # A tibble: 28 x 4
## # Groups:   sex [2]
##    sex   decade mean_year median_year
##    <chr>  <dbl>     <dbl>       <dbl>
##  1 F       1880      111.          13
##  2 F       1890      128.          13
##  3 F       1900      131.          12
##  4 F       1910      187.          12
##  5 F       1920      211.          12
##  6 F       1930      214.          12
##  7 F       1940      262.          12
##  8 F       1950      288.          13
##  9 F       1960      235.          12
## 10 F       1970      147.          11
## # ... with 18 more rows
…
